…
example_4 <- life_stacked %>%
             dplyr::filter(year %in% c(2000)) %>%
             na.omit() %>%
             mutate(age = round(life, 0)) %>%
             mutate(observed = 1) %>%
             group_by(life) %>%
             mutate(count = cumsum(observed)) %>%
             ungroup() %>%
             dplyr::select(country_name, year, life, count) %>%
             rename(n = count) %>%
             print
```

    ## # A tibble: 201 × 4
    ##    country_name         year   life     n
    ##    <chr>                <chr> <dbl> <dbl>
    ##  1 Aruba                2000   73.8     1
    ##  2 Afghanistan          2000   55.8     1
    ##  3 Angola               2000   46.5     1
    ##  4 Albania              2000   74.0     1
    ##  5 United Arab Emirates 2000   74.3     1
    ##  6 Argentina            2000   73.6     1
    ##  7 Armenia              2000   71.4     1
    ##  8 Antigua and Barbuda  2000   73.9     1
    ##  9 Australia            2000   79.2     1
    ## 10 Austria              2000   78.1     1
    ## # … with 191 more rows
…
             na.omit() %>%
             mutate(age = round(life, 0)) %>%
             mutate(observed = 1) %>%
             group_by(life) %>%
             mutate(count = cumsum(observed)) %>%
             ungroup() %>%
             dplyr::select(country_name, year, life, count) %>%
             rename(n = count) %>%
             dplyr::left_join(., 
              dplyr::select(income, country_name, income),
              by = 'country_name') %>%
             print
```

    ## # A tibble: 201 × 5
    ##    country_name         year   life     n income
    ##    <chr>                <chr> <dbl> <dbl>  <dbl>
    ##  1 Aruba                2000   73.8     1 20621.
    ##  2 Afghanistan          2000   55.8     1    NA 
    ##  3 Angola               2000   46.5     1   557.
    ##  4 Albania              2000   74.0     1  1127.
    ##  5 United Arab Emirates 2000   74.3     1 33291.
    ##  6 Argentina            2000   73.6     1  7708.
    ##  7 Armenia              2000   71.4     1   623.
    ##  8 Antigua and Barbuda  2000   73.9     1 10871.
    ##  9 Australia            2000   79.2     1 21679.
    ## 10 Austria              2000   78.1     1 24564.
    ## # … with 191 more rows
…
              between(life, 30,50) ~ '30 - 50 years',
              between(life, 51,70) ~ '51 - 70 years',
              between(life, 71,100) ~'71 or more years',
              )) %>%
             dplyr::select(country_name, life_group, income_group) %>%
             na.omit() %>%
             mutate(income_group = factor(income_group, levels = c(
            'Low income',
            'Lower middle income',
            'Upper middle income',
            'High income'
            ))) %>% print
```

    ## # A tibble: 180 × 3
    ##    country_name         life_group       income_group       
    ##    <chr>                <chr>            <fct>              
    ##  1 Aruba                71 or more years High income        
    ##  2 Afghanistan          51 - 70 years    Low income         
    ##  3 Angola               30 - 50 years    Lower middle income
    ##  4 Albania              71 or more years Upper middle income
    ##  5 United Arab Emirates 71 or more years High income        
    ##  6 Argentina            71 or more years Upper middle income
    ##  7 Armenia              71 or more years Upper middle income
    ##  8 Antigua and Barbuda  71 or more years High income        
    ##  9 Australia            71 or more years High income        
    ## 10 Austria              71 or more years High income        
    ## # … with 170 more rows
…
