…
``` r
# Nota: podemos transformar el reusltados de "xtabs" a una tabla
#       tipo tibble, y luego este objeto lo podemos
#       mostrar como una tabla en la consola.

#----------------------------------------------------------
# tabla de cantidad de escuelas por país
#----------------------------------------------------------

dplyr::count(data_schools, ctry_text)
```

    ## # A tibble: 24 × 2
    ##    ctry_text              n
    ##    <chr>              <int>
    ##  1 Belgium (Flemish)    162
    ##  2 Bulgaria             147
    ##  3 Chile                178
    ##  4 Chinese Taipei       141
    ##  5 Colombia             150
    ##  6 Croatia              175
    ##  7 Denmark              184
    ##  8 Dominican Republic   141
    ##  9 Estonia              164
    ## 10 Finland              179
    ## # … with 14 more rows
…
